mc20_13TeV.700980.Sh_2214_Diphoton_myy_90_175.deriv.DAOD_PHYSLITE.e8547_a907_r14859_p6266
mc20_13TeV.700980.Sh_2214_Diphoton_myy_90_175.deriv.DAOD_PHYSLITE.e8547_a907_r14860_p6266
mc20_13TeV.700980.Sh_2214_Diphoton_myy_90_175.deriv.DAOD_PHYSLITE.e8547_a907_r14861_p6266
