mc23_13p6TeV.542841.MGPy8EG_hh_bbtt_vbf_novhh_5fs_l1cvv1cv1_hh.deriv.DAOD_PHYS.e8562_s4159_r15224_p6266
mc23_13p6TeV.542841.MGPy8EG_hh_bbtt_vbf_novhh_5fs_l1cvv1cv1_hh.deriv.DAOD_PHYS.e8562_s4162_r14622_p6266
mc23_13p6TeV.542841.MGPy8EG_hh_bbtt_vbf_novhh_5fs_l1cvv1cv1_hh.deriv.DAOD_PHYS.e8562_a910_r14932_p6266
mc23_13p6TeV.542841.MGPy8EG_hh_bbtt_vbf_novhh_5fs_l1cvv1cv1_hh.deriv.DAOD_PHYS.e8562_a911_r15224_p6266

mc23_13p6TeV.542844.MGPy8EG_hh_bbtt_vbf_novhh_5fs_l1cvv1p5cv1_hh.deriv.DAOD_PHYS.e8562_s4159_r15224_p6266
mc23_13p6TeV.542844.MGPy8EG_hh_bbtt_vbf_novhh_5fs_l1cvv1p5cv1_hh.deriv.DAOD_PHYS.e8562_s4162_r14622_p6266
mc23_13p6TeV.542844.MGPy8EG_hh_bbtt_vbf_novhh_5fs_l1cvv1p5cv1_hh.deriv.DAOD_PHYS.e8562_a910_r14932_p6266
mc23_13p6TeV.542844.MGPy8EG_hh_bbtt_vbf_novhh_5fs_l1cvv1p5cv1_hh.deriv.DAOD_PHYS.e8562_a911_r15224_p6266

mc23_13p6TeV.542845.MGPy8EG_hh_bbtt_vbf_novhh_5fs_l2cvv1cv1_hh.deriv.DAOD_PHYS.e8562_s4159_r15224_p6266
mc23_13p6TeV.542845.MGPy8EG_hh_bbtt_vbf_novhh_5fs_l2cvv1cv1_hh.deriv.DAOD_PHYS.e8562_s4162_r14622_p6266
mc23_13p6TeV.542845.MGPy8EG_hh_bbtt_vbf_novhh_5fs_l2cvv1cv1_hh.deriv.DAOD_PHYS.e8562_a910_r14932_p6266
mc23_13p6TeV.542845.MGPy8EG_hh_bbtt_vbf_novhh_5fs_l2cvv1cv1_hh.deriv.DAOD_PHYS.e8562_a911_r15224_p6266

mc23_13p6TeV.542846.MGPy8EG_hh_bbtt_vbf_novhh_5fs_l10cvv1cv1_hh.deriv.DAOD_PHYS.e8562_s4159_r15224_p6266
mc23_13p6TeV.542846.MGPy8EG_hh_bbtt_vbf_novhh_5fs_l10cvv1cv1_hh.deriv.DAOD_PHYS.e8562_s4162_r14622_p6266
mc23_13p6TeV.542846.MGPy8EG_hh_bbtt_vbf_novhh_5fs_l10cvv1cv1_hh.deriv.DAOD_PHYS.e8562_a910_r14932_p6266
mc23_13p6TeV.542846.MGPy8EG_hh_bbtt_vbf_novhh_5fs_l10cvv1cv1_hh.deriv.DAOD_PHYS.e8562_a911_r15224_p6266

mc23_13p6TeV.542842.MGPy8EG_hh_bbtt_vbf_novhh_5fs_l1cvv1cv0p5_hh.deriv.DAOD_PHYS.e8562_s4159_r15224_p6266
mc23_13p6TeV.542842.MGPy8EG_hh_bbtt_vbf_novhh_5fs_l1cvv1cv0p5_hh.deriv.DAOD_PHYS.e8562_s4162_r14622_p6266
mc23_13p6TeV.542842.MGPy8EG_hh_bbtt_vbf_novhh_5fs_l1cvv1cv0p5_hh.deriv.DAOD_PHYS.e8562_a910_r14932_p6266
mc23_13p6TeV.542842.MGPy8EG_hh_bbtt_vbf_novhh_5fs_l1cvv1cv0p5_hh.deriv.DAOD_PHYS.e8562_a911_r15224_p6266

mc23_13p6TeV.542847.MGPy8EG_hh_bbtt_vbf_novhh_5fs_lm5cvv1cv0p5_hh.deriv.DAOD_PHYS.e8562_s4159_r15224_p6266
mc23_13p6TeV.542847.MGPy8EG_hh_bbtt_vbf_novhh_5fs_lm5cvv1cv0p5_hh.deriv.DAOD_PHYS.e8562_s4162_r14622_p6266
mc23_13p6TeV.542847.MGPy8EG_hh_bbtt_vbf_novhh_5fs_lm5cvv1cv0p5_hh.deriv.DAOD_PHYS.e8562_a910_r14932_p6266
mc23_13p6TeV.542847.MGPy8EG_hh_bbtt_vbf_novhh_5fs_lm5cvv1cv0p5_hh.deriv.DAOD_PHYS.e8562_a911_r15224_p6266

mc23_13p6TeV.542840.MGPy8EG_hh_bbtt_vbf_novhh_5fs_l1cvv0cv1_hh.deriv.DAOD_PHYS.e8562_s4159_r15224_p6266
mc23_13p6TeV.542840.MGPy8EG_hh_bbtt_vbf_novhh_5fs_l1cvv0cv1_hh.deriv.DAOD_PHYS.e8562_s4162_r14622_p6266
mc23_13p6TeV.542840.MGPy8EG_hh_bbtt_vbf_novhh_5fs_l1cvv0cv1_hh.deriv.DAOD_PHYS.e8562_a910_r14932_p6266
mc23_13p6TeV.542840.MGPy8EG_hh_bbtt_vbf_novhh_5fs_l1cvv0cv1_hh.deriv.DAOD_PHYS.e8562_a911_r15224_p6266

mc23_13p6TeV.542839.MGPy8EG_hh_bbtt_vbf_novhh_5fs_l0cvv1cv1_hh.deriv.DAOD_PHYS.e8562_s4159_r15224_p6266
mc23_13p6TeV.542839.MGPy8EG_hh_bbtt_vbf_novhh_5fs_l0cvv1cv1_hh.deriv.DAOD_PHYS.e8562_s4162_r14622_p6266
mc23_13p6TeV.542839.MGPy8EG_hh_bbtt_vbf_novhh_5fs_l0cvv1cv1_hh.deriv.DAOD_PHYS.e8562_a910_r14932_p6266
mc23_13p6TeV.542839.MGPy8EG_hh_bbtt_vbf_novhh_5fs_l0cvv1cv1_hh.deriv.DAOD_PHYS.e8562_a911_r15224_p6266

mc23_13p6TeV.542843.MGPy8EG_hh_bbtt_vbf_novhh_5fs_l1cvv2cv1_hh.deriv.DAOD_PHYS.e8562_s4159_r15224_p6266
mc23_13p6TeV.542843.MGPy8EG_hh_bbtt_vbf_novhh_5fs_l1cvv2cv1_hh.deriv.DAOD_PHYS.e8562_s4162_r14622_p6266
mc23_13p6TeV.542843.MGPy8EG_hh_bbtt_vbf_novhh_5fs_l1cvv2cv1_hh.deriv.DAOD_PHYS.e8562_a910_r14932_p6266
mc23_13p6TeV.542843.MGPy8EG_hh_bbtt_vbf_novhh_5fs_l1cvv2cv1_hh.deriv.DAOD_PHYS.e8562_a911_r15224_p6266

mc23_13p6TeV.542850.MGPy8EG_hh_bbtt_vbf_novhh_5fs_l1cvv1cv1_lh.deriv.DAOD_PHYS.e8562_s4159_r15224_p6266
mc23_13p6TeV.542850.MGPy8EG_hh_bbtt_vbf_novhh_5fs_l1cvv1cv1_lh.deriv.DAOD_PHYS.e8562_s4162_r14622_p6266
mc23_13p6TeV.542850.MGPy8EG_hh_bbtt_vbf_novhh_5fs_l1cvv1cv1_lh.deriv.DAOD_PHYS.e8562_a910_r14932_p6266
mc23_13p6TeV.542850.MGPy8EG_hh_bbtt_vbf_novhh_5fs_l1cvv1cv1_lh.deriv.DAOD_PHYS.e8562_a911_r15224_p6266

mc23_13p6TeV.542853.MGPy8EG_hh_bbtt_vbf_novhh_5fs_l1cvv1p5cv1_lh.deriv.DAOD_PHYS.e8562_s4159_r15224_p6266
mc23_13p6TeV.542853.MGPy8EG_hh_bbtt_vbf_novhh_5fs_l1cvv1p5cv1_lh.deriv.DAOD_PHYS.e8562_s4162_r14622_p6266
mc23_13p6TeV.542853.MGPy8EG_hh_bbtt_vbf_novhh_5fs_l1cvv1p5cv1_lh.deriv.DAOD_PHYS.e8562_a910_r14932_p6266
mc23_13p6TeV.542853.MGPy8EG_hh_bbtt_vbf_novhh_5fs_l1cvv1p5cv1_lh.deriv.DAOD_PHYS.e8562_a911_r15224_p6266

mc23_13p6TeV.542854.MGPy8EG_hh_bbtt_vbf_novhh_5fs_l2cvv1cv1_lh.deriv.DAOD_PHYS.e8562_s4159_r15224_p6266
mc23_13p6TeV.542854.MGPy8EG_hh_bbtt_vbf_novhh_5fs_l2cvv1cv1_lh.deriv.DAOD_PHYS.e8562_s4162_r14622_p6266
mc23_13p6TeV.542854.MGPy8EG_hh_bbtt_vbf_novhh_5fs_l2cvv1cv1_lh.deriv.DAOD_PHYS.e8562_a910_r14932_p6266
mc23_13p6TeV.542854.MGPy8EG_hh_bbtt_vbf_novhh_5fs_l2cvv1cv1_lh.deriv.DAOD_PHYS.e8562_a911_r15224_p6266

mc23_13p6TeV.542855.MGPy8EG_hh_bbtt_vbf_novhh_5fs_l10cvv1cv1_lh.deriv.DAOD_PHYS.e8562_s4159_r15224_p6266
mc23_13p6TeV.542855.MGPy8EG_hh_bbtt_vbf_novhh_5fs_l10cvv1cv1_lh.deriv.DAOD_PHYS.e8562_s4162_r14622_p6266
mc23_13p6TeV.542855.MGPy8EG_hh_bbtt_vbf_novhh_5fs_l10cvv1cv1_lh.deriv.DAOD_PHYS.e8562_a910_r14932_p6266
mc23_13p6TeV.542855.MGPy8EG_hh_bbtt_vbf_novhh_5fs_l10cvv1cv1_lh.deriv.DAOD_PHYS.e8562_a911_r15224_p6266

mc23_13p6TeV.542851.MGPy8EG_hh_bbtt_vbf_novhh_5fs_l1cvv1cv0p5_lh.deriv.DAOD_PHYS.e8562_s4159_r15224_p6266
mc23_13p6TeV.542851.MGPy8EG_hh_bbtt_vbf_novhh_5fs_l1cvv1cv0p5_lh.deriv.DAOD_PHYS.e8562_s4162_r14622_p6266
mc23_13p6TeV.542851.MGPy8EG_hh_bbtt_vbf_novhh_5fs_l1cvv1cv0p5_lh.deriv.DAOD_PHYS.e8562_a910_r14932_p6266
mc23_13p6TeV.542851.MGPy8EG_hh_bbtt_vbf_novhh_5fs_l1cvv1cv0p5_lh.deriv.DAOD_PHYS.e8562_a911_r15224_p6266

mc23_13p6TeV.542856.MGPy8EG_hh_bbtt_vbf_novhh_5fs_l5mcvv1cv0p5_lh.deriv.DAOD_PHYS.e8562_s4159_r15224_p6266
mc23_13p6TeV.542856.MGPy8EG_hh_bbtt_vbf_novhh_5fs_l5mcvv1cv0p5_lh.deriv.DAOD_PHYS.e8562_s4162_r14622_p6266
mc23_13p6TeV.542856.MGPy8EG_hh_bbtt_vbf_novhh_5fs_l5mcvv1cv0p5_lh.deriv.DAOD_PHYS.e8562_a910_r14932_p6266
mc23_13p6TeV.542856.MGPy8EG_hh_bbtt_vbf_novhh_5fs_l5mcvv1cv0p5_lh.deriv.DAOD_PHYS.e8562_a911_r15224_p6266

mc23_13p6TeV.542849.MGPy8EG_hh_bbtt_vbf_novhh_5fs_l1cvv0cv1_lh.deriv.DAOD_PHYS.e8562_s4159_r15224_p6266
mc23_13p6TeV.542849.MGPy8EG_hh_bbtt_vbf_novhh_5fs_l1cvv0cv1_lh.deriv.DAOD_PHYS.e8562_s4162_r14622_p6266
mc23_13p6TeV.542849.MGPy8EG_hh_bbtt_vbf_novhh_5fs_l1cvv0cv1_lh.deriv.DAOD_PHYS.e8562_a910_r14932_p6266
mc23_13p6TeV.542849.MGPy8EG_hh_bbtt_vbf_novhh_5fs_l1cvv0cv1_lh.deriv.DAOD_PHYS.e8562_a911_r15224_p6266

mc23_13p6TeV.542848.MGPy8EG_hh_bbtt_vbf_novhh_5fs_l0cvv1cv1_lh.deriv.DAOD_PHYS.e8562_s4159_r15224_p6266
mc23_13p6TeV.542848.MGPy8EG_hh_bbtt_vbf_novhh_5fs_l0cvv1cv1_lh.deriv.DAOD_PHYS.e8562_s4162_r14622_p6266
mc23_13p6TeV.542848.MGPy8EG_hh_bbtt_vbf_novhh_5fs_l0cvv1cv1_lh.deriv.DAOD_PHYS.e8562_a910_r14932_p6266
mc23_13p6TeV.542848.MGPy8EG_hh_bbtt_vbf_novhh_5fs_l0cvv1cv1_lh.deriv.DAOD_PHYS.e8562_a911_r15224_p6266

mc23_13p6TeV.542852.MGPy8EG_hh_bbtt_vbf_novhh_5fs_l1cvv2cv1_lh.deriv.DAOD_PHYS.e8562_s4159_r15224_p6266
mc23_13p6TeV.542852.MGPy8EG_hh_bbtt_vbf_novhh_5fs_l1cvv2cv1_lh.deriv.DAOD_PHYS.e8562_s4162_r14622_p6266
mc23_13p6TeV.542852.MGPy8EG_hh_bbtt_vbf_novhh_5fs_l1cvv2cv1_lh.deriv.DAOD_PHYS.e8562_a910_r14932_p6266
mc23_13p6TeV.542852.MGPy8EG_hh_bbtt_vbf_novhh_5fs_l1cvv2cv1_lh.deriv.DAOD_PHYS.e8562_a911_r15224_p6266

mc23_13p6TeV.603698.PhPy8EG_PDF4LHC21_hh_bbtt_ggf_chhh0p0_hh.deriv.DAOD_PHYS.e8564_a910_r15540_p6266
mc23_13p6TeV.603698.PhPy8EG_PDF4LHC21_hh_bbtt_ggf_chhh0p0_hh.deriv.DAOD_PHYS.e8564_a911_r15530_p6266

mc23_13p6TeV.603699.PhPy8EG_PDF4LHC21_hh_bbtt_ggf_chhh10p0_hh.deriv.DAOD_PHYS.e8564_a910_r15540_p6266
mc23_13p6TeV.603699.PhPy8EG_PDF4LHC21_hh_bbtt_ggf_chhh10p0_hh.deriv.DAOD_PHYS.e8564_a911_r15530_p6266

mc23_13p6TeV.603700.PhPy8EG_PDF4LHC21_hh_bbtt_ggf_chhh1p0_hh.deriv.DAOD_PHYS.e8564_s4159_r15530_p6266
mc23_13p6TeV.603700.PhPy8EG_PDF4LHC21_hh_bbtt_ggf_chhh1p0_hh.deriv.DAOD_PHYS.e8564_s4162_r15540_p6266

mc23_13p6TeV.603700.PhPy8EG_PDF4LHC21_hh_bbtt_ggf_chhh1p0_hh.deriv.DAOD_PHYS.e8564_a910_r15540_p6266
mc23_13p6TeV.603700.PhPy8EG_PDF4LHC21_hh_bbtt_ggf_chhh1p0_hh.deriv.DAOD_PHYS.e8564_a911_r15530_p6266

mc23_13p6TeV.603701.PhPy8EG_PDF4LHC21_hh_bbtt_ggf_chhh2p5_hh.deriv.DAOD_PHYS.e8564_a910_r15540_p6266
mc23_13p6TeV.603701.PhPy8EG_PDF4LHC21_hh_bbtt_ggf_chhh2p5_hh.deriv.DAOD_PHYS.e8564_a911_r15530_p6266

mc23_13p6TeV.603702.PhPy8EG_PDF4LHC21_hh_bbtt_ggf_chhh5p0_hh.deriv.DAOD_PHYS.e8564_a910_r15540_p6266
mc23_13p6TeV.603702.PhPy8EG_PDF4LHC21_hh_bbtt_ggf_chhh5p0_hh.deriv.DAOD_PHYS.e8564_a911_r15530_p6266

mc23_13p6TeV.603703.PhPy8EG_PDF4LHC21_hh_bbtt_ggf_chhhm1p0_hh.deriv.DAOD_PHYS.e8564_a910_r15540_p6266
mc23_13p6TeV.603703.PhPy8EG_PDF4LHC21_hh_bbtt_ggf_chhhm1p0_hh.deriv.DAOD_PHYS.e8564_a911_r15530_p6266

mc23_13p6TeV.603704.PhPy8EG_PDF4LHC21_hh_bbtt_ggf_chhh0p0_lh.deriv.DAOD_PHYS.e8564_a910_r15540_p6266
mc23_13p6TeV.603704.PhPy8EG_PDF4LHC21_hh_bbtt_ggf_chhh0p0_lh.deriv.DAOD_PHYS.e8564_a911_r15530_p6266

mc23_13p6TeV.603705.PhPy8EG_PDF4LHC21_hh_bbtt_ggf_chhh10p0_lh.deriv.DAOD_PHYS.e8564_a910_r15540_p6266
mc23_13p6TeV.603705.PhPy8EG_PDF4LHC21_hh_bbtt_ggf_chhh10p0_lh.deriv.DAOD_PHYS.e8564_a911_r15530_p6266

mc23_13p6TeV.603706.PhPy8EG_PDF4LHC21_hh_bbtt_ggf_chhh1p0_lh.deriv.DAOD_PHYS.e8564_s4162_r15540_p6266
mc23_13p6TeV.603706.PhPy8EG_PDF4LHC21_hh_bbtt_ggf_chhh1p0_lh.deriv.DAOD_PHYS.e8564_s4159_r15530_p6266
mc23_13p6TeV.603706.PhPy8EG_PDF4LHC21_hh_bbtt_ggf_chhh1p0_lh.deriv.DAOD_PHYS.e8564_a910_r15540_p6266
mc23_13p6TeV.603706.PhPy8EG_PDF4LHC21_hh_bbtt_ggf_chhh1p0_lh.deriv.DAOD_PHYS.e8564_a911_r15530_p6266

mc23_13p6TeV.603707.PhPy8EG_PDF4LHC21_hh_bbtt_ggf_chhh2p5_lh.deriv.DAOD_PHYS.e8564_a910_r15540_p6266
mc23_13p6TeV.603707.PhPy8EG_PDF4LHC21_hh_bbtt_ggf_chhh2p5_lh.deriv.DAOD_PHYS.e8564_a911_r15530_p6266

mc23_13p6TeV.603708.PhPy8EG_PDF4LHC21_hh_bbtt_ggf_chhh5p0_lh.deriv.DAOD_PHYS.e8564_a910_r15540_p6266
mc23_13p6TeV.603708.PhPy8EG_PDF4LHC21_hh_bbtt_ggf_chhh5p0_lh.deriv.DAOD_PHYS.e8564_a911_r15530_p6266

mc23_13p6TeV.603709.PhPy8EG_PDF4LHC21_hh_bbtt_ggf_chhhm1p0_lh.deriv.DAOD_PHYS.e8564_a910_r15540_p6266
mc23_13p6TeV.603709.PhPy8EG_PDF4LHC21_hh_bbtt_ggf_chhhm1p0_lh.deriv.DAOD_PHYS.e8564_a911_r15530_p6266

