mc20_13TeV.345053.PowhegPythia8EvtGen_NNPDF3_AZNLO_WmH125J_MINLO_lvbb_VpT.deriv.DAOD_PHYS.e5706_s3681_r13167_p6490
mc20_13TeV.345054.PowhegPythia8EvtGen_NNPDF3_AZNLO_WpH125J_MINLO_lvbb_VpT.deriv.DAOD_PHYS.e5706_s3681_r13167_p6490
mc20_13TeV.345055.PowhegPythia8EvtGen_NNPDF3_AZNLO_ZH125J_MINLO_llbb_VpT.deriv.DAOD_PHYS.e5706_s3681_r13167_p6490
mc20_13TeV.345057.PowhegPythia8EvtGen_NNPDF3_AZNLO_ggZH125_llbb.deriv.DAOD_PHYS.e5706_s3681_r13167_p6490
mc20_13TeV.346560.PowhegPythia8EvtGen_NNPDF3_AZNLO_WmH125J_MINLO_lvWWlvqq.deriv.DAOD_PHYS.e7552_s3681_r13167_p6490
mc20_13TeV.346561.PowhegPythia8EvtGen_NNPDF3_AZNLO_WpH125J_MINLO_lvWWlvqq.deriv.DAOD_PHYS.e7552_s3681_r13167_p6490
mc20_13TeV.345053.PowhegPythia8EvtGen_NNPDF3_AZNLO_WmH125J_MINLO_lvbb_VpT.deriv.DAOD_PHYS.e5706_s3681_r13144_p6490
mc20_13TeV.345054.PowhegPythia8EvtGen_NNPDF3_AZNLO_WpH125J_MINLO_lvbb_VpT.deriv.DAOD_PHYS.e5706_s3681_r13144_p6490
mc20_13TeV.345055.PowhegPythia8EvtGen_NNPDF3_AZNLO_ZH125J_MINLO_llbb_VpT.deriv.DAOD_PHYS.e5706_s3681_r13144_p6490
mc20_13TeV.345057.PowhegPythia8EvtGen_NNPDF3_AZNLO_ggZH125_llbb.deriv.DAOD_PHYS.e5706_s3681_r13144_p6490
mc20_13TeV.346560.PowhegPythia8EvtGen_NNPDF3_AZNLO_WmH125J_MINLO_lvWWlvqq.deriv.DAOD_PHYS.e7552_s3681_r13144_p6490
mc20_13TeV.346561.PowhegPythia8EvtGen_NNPDF3_AZNLO_WpH125J_MINLO_lvWWlvqq.deriv.DAOD_PHYS.e7552_s3681_r13144_p6490
mc20_13TeV.345053.PowhegPythia8EvtGen_NNPDF3_AZNLO_WmH125J_MINLO_lvbb_VpT.deriv.DAOD_PHYS.e5706_s3681_r13145_p6490
mc20_13TeV.345054.PowhegPythia8EvtGen_NNPDF3_AZNLO_WpH125J_MINLO_lvbb_VpT.deriv.DAOD_PHYS.e5706_s3681_r13145_p6490
mc20_13TeV.345055.PowhegPythia8EvtGen_NNPDF3_AZNLO_ZH125J_MINLO_llbb_VpT.deriv.DAOD_PHYS.e5706_s3681_r13145_p6490
mc20_13TeV.345057.PowhegPythia8EvtGen_NNPDF3_AZNLO_ggZH125_llbb.deriv.DAOD_PHYS.e5706_s3681_r13145_p6490
mc20_13TeV.346560.PowhegPythia8EvtGen_NNPDF3_AZNLO_WmH125J_MINLO_lvWWlvqq.deriv.DAOD_PHYS.e7552_s3681_r13145_p6490
mc20_13TeV.346561.PowhegPythia8EvtGen_NNPDF3_AZNLO_WpH125J_MINLO_lvWWlvqq.deriv.DAOD_PHYS.e7552_s3681_r13145_p6490
